Raw file	Experiment	Enzyme	Enzyme mode	Enzyme first search	Enzyme mode first search	Use enzyme first search	Variable modifications	Multi modifications	Variable modifications first search	Use variable modifications first search	Requantify	Multiplicity	Max. missed cleavages	Labels0	LC-MS run type	Time-dependent recalibration	MS	MS/MS	MS3	MS/MS Submitted	MS/MS Submitted (SIL)	MS/MS Submitted (ISO)	MS/MS Submitted (PEAK)	MS/MS Identified	MS/MS Identified (SIL)	MS/MS Identified (ISO)	MS/MS Identified (PEAK)	MS/MS Identified [%]	MS/MS Identified (SIL) [%]	MS/MS Identified (ISO) [%]	MS/MS Identified (PEAK) [%]	Peptide Sequences Identified	Peaks	Peaks Sequenced	Peaks Sequenced [%]	Peaks Repeatedly Sequenced	Peaks Repeatedly Sequenced [%]	Isotope Patterns	Isotope Patterns Sequenced	Isotope Patterns Sequenced (z>1)	Isotope Patterns Sequenced [%]	Isotope Patterns Sequenced (z>1) [%]	Isotope Patterns Repeatedly Sequenced	Isotope Patterns Repeatedly Sequenced [%]	Recalibrated	Av. Absolute Mass Deviation [ppm]	Mass Standard Deviation [ppm]	Av. Absolute Mass Deviation [mDa]	Mass Standard Deviation [mDa]	Label free norm param
150925_SH-Ref_1ug_8-39_150928212541	E1	Trypsin/P	Specific			False	Oxidation (M);Acetyl (Protein N-term)			False	False	1	3		Standard		14539	29183	0	33495	24871	0	8624	376	368	0	8	1.12	1.48	NaN	0.09	282	1549388	24819	1.6	2479	9.99	126870	20988	20387	16.54	26.41	3308	15.76	+	0.72889	0.9921	0.52323	0.75063	
151109_SH_Ref_G70_8_39_1ug_151111030159	E2	Trypsin/P	Specific			False	Oxidation (M);Acetyl (Protein N-term)			False	False	1	3		Standard		14476	32895	0	38468	27322	0	11146	828	803	0	25	2.15	2.94	NaN	0.22	550	1760588	27346	1.55	2820	10.31	139461	22904	22371	16.42	26.03	3664	16	+	0.79293	1.0642	0.59177	0.84645	
151214_Reference_1ug_ul_160104194903	E3	Trypsin/P	Specific			False	Oxidation (M);Acetyl (Protein N-term)			False	False	1	3		Standard		14315	31994	0	37583	26405	0	11178	881	853	0	28	2.34	3.23	NaN	0.25	474	1341652	25529	1.9	3695	14.47	98980	20173	19491	20.38	26.36	4598	22.79	+	0.88894	1.1886	0.66368	0.93205	
160414_C1_Ref_600ng_40C_400_6-25_G120_160418132556	E4	Trypsin/P	Specific			False	Oxidation (M);Acetyl (Protein N-term)			False	False	1	3		Standard		11886	41331	0	48656	34006	0	14650	266	240	0	26	0.55	0.71	NaN	0.18	133	1565383	27380	1.75	7850	28.67	121501	20125	19365	16.56	20	8532	42.4	+	0.59614	0.84761	0.39167	0.5678	
160414_C1_Ref_600ng_40C_400_6-25_G120_160418184053	E5	Trypsin/P	Specific			False	Oxidation (M);Acetyl (Protein N-term)			False	False	1	2		Standard		11675	41516	0	48725	34307	0	14418	448	413	0	35	0.92	1.2	NaN	0.24	203	1571469	27390	1.74	8052	29.4	122217	20247	19491	16.57	19.85	8666	42.8	+	0.66391	0.95824	0.42384	0.61345	
160414_C1_Ref_600ng_40C_400_6-30_G120_160419050929	E6	Trypsin/P	Specific			False	Oxidation (M);Acetyl (Protein N-term)			False	False	1	2		Standard		11044	42452	0	49792	35112	0	14680	407	380	0	27	0.82	1.08	NaN	0.18	190	1424760	28864	2.03	8045	27.87	114419	21395	20615	18.7	22.33	8909	41.64	+	0.68108	0.94918	0.4409	0.63974	
160414_C1_Ref_600ng_40C_400_8-25_G120	E7	Trypsin/P	Specific			False	Oxidation (M);Acetyl (Protein N-term)			False	False	1	2		Standard		10448	45590	0	53492	37688	0	15804	520	494	0	26	0.97	1.31	NaN	0.16	216	1501660	29959	2	8588	28.67	124869	21983	21222	17.6	20.54	9317	42.38	+	0.77712	1.0254	0.52281	0.72176	
160422_C1_Ref_600ng_G120_Dual	E8	Trypsin/P	Specific			False	Oxidation (M);Acetyl (Protein N-term)			False	False	1	2		Standard		10363	42924	0	49383	36465	0	12918	1021	977	0	44	2.07	2.68	NaN	0.34	483	1357195	30221	2.23	7888	26.1	116612	23112	22498	19.82	23.62	8953	38.74	+	0.77272	1.0442	0.5437	0.78039	
160422_C1_Ref_1000ng_G120_Dual	E9	Trypsin/P	Specific			False	Oxidation (M);Acetyl (Protein N-term)			False	False	1	2		Standard		9669	45544	0	52882	38206	0	14676	1104	1039	0	65	2.09	2.72	NaN	0.44	512	1268463	31663	2.5	8358	26.4	113167	23580	22851	20.84	23.72	9528	40.41	+	0.91472	1.1599	0.64038	0.85118	
160422_C1_Ref_1000ng_G120_Dual_160424063715	E10	Trypsin/P	Specific			False	Oxidation (M);Acetyl (Protein N-term)			False	False	1	2		Standard		9618	45607	0	52876	38338	0	14538	1130	1089	0	41	2.14	2.84	NaN	0.28	502	1310446	31629	2.41	8412	26.6	116248	23709	22942	20.4	23.43	9516	40.14	+	0.85227	1.1122	0.6027	0.83165	
160422_C1_Ref_1000ng_G120_Dual_160424115148	E11	Trypsin/P	Specific			False	Oxidation (M);Acetyl (Protein N-term)			False	False	1	2		Standard		9861	45092	0	52299	37885	0	14414	1100	1045	0	55	2.1	2.76	NaN	0.38	521	1303640	31417	2.41	8252	26.27	114993	23514	22744	20.45	23.44	9425	40.08	+	0.83904	1.1138	0.60039	0.84028	
160422_C1_Ref_1600ng_G120_Dual	E12	Trypsin/P	Specific			False	Oxidation (M);Acetyl (Protein N-term)			False	False	1	2		Standard		9586	46647	0	54112	39182	0	14930	1236	1184	0	52	2.28	3.02	NaN	0.35	536	1313428	32493	2.47	8513	26.2	119093	24347	23524	20.44	23.44	9645	39.61	+	0.88861	1.1552	0.63664	0.87163	
160422_C1_Ref_1600ng_G120_Dual_160424222137	E13	Trypsin/P	Specific			False	Oxidation (M);Acetyl (Protein N-term)			False	False	1	2		Standard		9722	46210	0	53620	38798	0	14822	1210	1153	0	57	2.26	2.97	NaN	0.38	518	1289561	32221	2.5	8400	26.07	116474	24096	23299	20.69	23.63	9592	39.81	+	0.84846	1.1147	0.60041	0.84092	
160422_C1_Ref_1600ng_G120_Dual_160425033645	E14	Trypsin/P	Specific			False	Oxidation (M);Acetyl (Protein N-term)			False	False	1	2		Standard		9860	45682	0	52918	38446	0	14472	1109	1040	0	69	2.1	2.71	NaN	0.48	494	1284463	31872	2.48	8333	26.15	115361	24000	23199	20.8	23.76	9479	39.5	+	0.90129	1.195	0.65505	0.92672	
Column1_ONLY_REF_G70_600ng	E15	Trypsin/P	Specific			False	Oxidation (M);Acetyl (Protein N-term)			False	False	1	2		Standard		14657	31831	0	37688	25974	0	11714	830	798	0	32	2.2	3.07	NaN	0.27	350	1423794	22698	1.59	5410	23.83	100830	16338	15763	16.2	22.05	6193	37.91	+	0.85211	1.1488	0.60117	0.85639	
Column1_ONLY_REF_G70_600ng_February16	E16	Trypsin/P	Specific			False	Oxidation (M);Acetyl (Protein N-term)			False	False	1	2		Standard		14657	31831	0	37688	25974	0	11714	830	798	0	32	2.2	3.07	NaN	0.27	350	1423794	22698	1.59	5410	23.83	100830	16338	15763	16.2	22.05	6193	37.91	+	0.85211	1.1488	0.60117	0.85639	
E1																																282																		
E10																																502																		
E11																																521																		
E12																																536																		
E13																																518																		
E14																																494																		
E15																																350																		
E16																																350																		
E2																																550																		
E3																																474																		
E4																																133																		
E5																																203																		
E6																																190																		
E7																																216																		
E8																																483																		
E9																																512																		
Total																	186376	646329	0	753677	538979	0	214698	13296	12674	0	622	1.76	2.35	NaN	0.29	1024	22689684					1861925	346849	335525	18.63	23.08	125518	36.19		0.83056	1.1068	0.59065	0.83237	
